Airline	Month	Value
1	4	53140
1	9	50742
1	8	54417
1	6	53216
1	2	48679
1	1	54072
1	11	50106
1	10	52702
1	7	53999
1	5	54803
1	12	52290
1	3	55304
2	5	13399
2	12	12647
2	3	12925
2	7	14477
2	4	12622
2	8	14579
2	9	13154
2	2	11378
2	1	12531
2	6	13876
2	10	13147
2	11	12239
3	1	11021
3	9	13028
3	11	14315
3	10	13891
3	5	12014
3	12	15382
3	3	12377
3	6	12164
3	4	12535
3	8	14202
3	7	13799
3	2	10345
4	9	23826
4	5	25885
4	12	26909
4	3	27434
4	6	26072
4	4	25683
4	8	26688
4	7	26620
4	2	22500
4	1	24436
4	11	25521
4	10	26166
5	9	39116
5	2	39288
5	6	41260
5	1	44045
5	10	41375
5	11	40024
5	5	41363
5	12	39753
5	3	45218
5	7	42057
5	4	42349
5	8	42543
6	11	7421
6	10	8042
6	5	7692
6	12	6935
6	3	7000
6	7	8267
6	4	6873
6	8	8370
6	9	7917
6	2	6235
6	6	7657
6	1	6870
7	7	20972
7	4	18989
7	8	20724
7	9	19124
7	6	20010
7	2	16775
7	1	18215
7	11	20281
7	10	20259
7	5	19795
7	12	21085
7	3	19475
8	9	4376
8	6	4406
8	2	3738
8	1	4140
8	11	4414
8	10	4470
8	5	4119
8	12	4610
8	3	4132
8	7	4767
8	4	4011
8	8	4737
10	8	46513
10	7	45922
10	2	39250
10	9	43675
10	1	43659
10	10	45394
10	11	43006
10	6	44745
10	5	45888
10	12	43822
10	3	43757
10	4	44467
12	8	37584
12	7	36989
12	2	31065
12	1	33349
12	11	35985
12	10	36982
12	9	35665
12	5	36401
12	12	36957
12	3	36512
12	6	35495
12	4	35042
13	8	24684
13	7	24421
13	2	20175
13	1	23434
13	11	20819
13	10	22656
13	5	23125
13	12	20563
13	3	22974
13	9	22801
13	4	22624
13	6	22948
14	5	45612
14	7	47031
14	12	44731
14	3	45237
14	4	43759
14	8	47596
14	9	44271
14	6	45715
14	2	39623
14	1	42283
14	11	43624
14	10	45783
15	4	40255
15	9	40150
15	8	43480
15	6	41439
15	2	36961
15	1	39550
15	11	40273
15	10	41711
15	7	42394
15	5	42003
15	12	39779
15	3	41775
16	12	41377
16	3	44041
16	4	41730
16	7	41517
16	8	42014
16	9	40340
16	2	38517
16	1	43859
16	6	40553
16	11	40632
16	10	42431
16	5	42322
18	6	90265
18	2	81221
18	1	89445
18	10	95300
18	11	91039
18	5	91726
18	7	93076
18	12	92957
18	3	91473
18	4	88485
18	8	94991
18	9	90392
19	5	36856
19	12	36160
19	3	37616
19	4	35377
19	9	35082
19	8	39372
19	6	37040
19	2	30303
19	1	33027
19	7	38310
19	10	36982
19	11	35629
20	4	23724
20	9	24776
20	8	27110
20	6	24030
20	2	21818
20	1	24069
20	7	26159
20	11	24501
20	10	25172
20	5	24140
20	12	24739
20	3	24982
22	5	1526
22	12	1631
22	3	1733
22	7	1584
22	4	1625
22	8	1652
22	9	1521
22	2	1540
22	6	1547
22	1	1915
22	11	1515
22	10	1586
23	4	22309
23	9	21293
23	8	23390
23	6	21991
23	2	20543
23	1	21580
23	7	23609
23	11	21543
23	10	22427
23	5	23585
23	12	20424
23	3	23666
24	8	4303
24	6	3798
24	7	4539
24	11	3752
24	10	3843
24	5	3608
24	12	3913
24	9	3738
24	4	3148