Airline	Month	Value
1	4	47552
1	9	47511
1	8	51978
1	6	49819
1	2	46317
1	1	50753
1	11	44450
1	10	49484
1	7	52105
1	5	52131
1	12	46320
1	3	49113
2	5	13010
2	12	10714
2	3	12672
2	7	14092
2	4	12359
2	8	13611
2	9	12015
2	2	11676
2	1	12374
2	6	13286
2	10	12208
2	11	10967
3	2	15619
3	1	16236
3	9	13922
3	11	15539
3	10	14500
3	5	16142
3	12	16230
3	3	17707
3	6	16162
3	4	17014
3	8	16925
3	7	16907
4	9	20210
4	5	26158
4	12	22293
4	3	26823
4	6	26158
4	4	25896
4	8	26895
4	7	27197
4	2	23915
4	1	24984
4	11	21547
4	10	22720
5	9	35886
5	2	35597
5	6	37365
5	1	37057
5	10	38427
5	11	36655
5	5	36193
5	12	36280
5	3	38974
5	7	38430
5	4	36730
5	8	37576
6	1	7678
6	11	7089
6	10	7555
6	5	8572
6	12	7298
6	3	7917
6	7	9311
6	4	7902
6	8	8987
6	9	7488
6	2	7085
6	6	8580
7	7	23776
7	4	22517
7	8	23360
7	9	18985
7	6	23155
7	2	20045
7	1	20281
7	11	20129
7	10	20480
7	5	23276
7	12	20344
7	3	23110
8	8	5550
8	9	4881
8	6	5284
8	2	4379
8	1	4643
8	11	5726
8	10	5409
8	5	4673
8	12	5986
8	3	4669
8	7	5481
8	4	4582
10	8	42537
10	7	44160
10	2	37196
10	9	38487
10	1	41007
10	10	37905
10	11	33569
10	6	42056
10	5	42147
10	12	32771
10	3	39678
10	4	41019
12	8	29433
12	7	32081
12	2	28551
12	1	30629
12	11	23995
12	10	25522
12	9	25061
12	5	31632
12	12	24257
12	3	31465
12	6	31404
12	4	30747
13	8	16767
13	7	17478
13	2	16010
13	1	18143
13	11	12571
13	10	13496
13	5	16892
13	12	12868
13	3	17921
13	9	15090
13	4	17242
13	6	16695
14	5	48187
14	7	49002
14	12	42281
14	3	49936
14	4	48027
14	8	49403
14	9	43643
14	6	48678
14	2	44020
14	1	46428
14	11	40865
14	10	44432
15	4	38115
15	9	34169
15	8	39481
15	6	39033
15	2	35245
15	1	36545
15	11	30813
15	10	35258
15	7	40053
15	5	39146
15	12	31688
15	3	39515
16	12	35910
16	3	38813
16	4	37680
16	7	39126
16	8	37621
16	9	35315
16	2	36096
16	1	38560
16	6	37847
16	11	34794
16	10	36739
16	5	38580
18	6	100564
18	2	92687
18	1	100258
18	10	101139
18	11	95289
18	5	102216
18	7	102986
18	12	95560
18	3	101423
18	4	100218
18	8	101212
18	9	95844
19	11	22070
19	5	34235
19	12	23344
19	3	34990
19	4	34674
19	9	21782
19	8	33985
19	6	34278
19	2	30713
19	1	34455
19	7	36090
19	10	23964
20	4	21003
20	9	19465
20	8	21084
20	6	21483
20	2	18528
20	1	20721
20	7	22119
20	11	19165
20	10	20464
20	5	21684
20	12	19824
20	3	20284
21	2	19722
21	1	21715
21	7	21481
21	10	22089
21	11	21114
21	5	22015
21	12	21232
21	3	21370
21	4	21455
21	9	20591
21	8	21280
21	6	21159
23	4	23039
23	9	20650
23	8	24759
23	6	24728
23	2	21484
23	1	21987
23	7	25458
23	11	22718
23	10	21355
23	5	23175
23	12	22726
23	3	23527
24	2	3755
24	1	4003