Airline	Month	Value
1	1	45443
1	11	43022
1	10	44273
1	7	45868
1	5	44730
1	12	44570
1	3	46751
1	4	44389
1	9	43108
1	8	45973
1	6	43920
1	2	40050
2	9	11442
2	2	9470
2	1	10447
2	6	12265
2	10	11548
2	11	10985
2	5	11511
2	12	11384
2	3	10885
2	7	12858
2	4	10663
2	8	12765
3	8	17613
3	7	17694
3	2	14476
3	1	16016
3	9	15658
3	11	16669
3	10	16448
3	5	15940
3	12	16578
3	3	17254
3	6	16262
3	4	16758
4	7	20837
4	2	17476
4	1	19551
4	11	19761
4	10	20075
4	9	18539
4	5	19895
4	12	20469
4	3	20414
4	6	20273
4	4	19450
4	8	20587
5	4	58943
5	8	64894
5	9	61193
5	2	49888
5	6	62909
5	1	55883
5	10	62830
5	11	59728
5	5	60720
5	12	58141
5	3	59414
5	7	64177
6	9	6805
6	2	6079
6	6	7218
6	1	6440
6	11	6320
6	10	6799
6	5	7106
6	12	6418
6	3	6801
6	7	7459
6	4	6663
6	8	7519
7	6	21736
7	2	17477
7	1	19609
7	11	20352
7	10	20310
7	5	21326
7	12	20522
7	3	20904
7	7	22398
7	4	20412
7	8	22146
7	9	19047
8	5	5510
8	12	5570
8	3	5453
8	7	6391
8	4	5331
8	8	6345
8	9	5482
8	6	5857
8	2	5077
8	1	5731
8	11	5324
8	10	5528
10	1	35408
10	10	37245
10	11	35470
10	6	34453
10	5	35663
10	12	34664
10	3	36516
10	4	35576
10	8	37192
10	7	36186
10	2	31177
10	9	35939
13	11	12339
13	10	13184
13	5	11275
13	12	11682
13	3	11987
13	9	13283
13	4	11675
13	6	11502
13	8	12704
13	7	12596
13	2	9343
13	1	10630
14	6	50905
14	2	44260
14	1	46919
14	11	46989
14	10	49081
14	5	49598
14	7	52436
14	12	48124
14	3	50774
14	4	48534
14	8	52538
14	9	48295
15	2	24635
15	1	27314
15	11	27218
15	10	29011
15	7	30025
15	5	28596
15	12	27038
15	3	29262
15	4	28008
15	9	27916
15	8	30319
15	6	28923
16	9	33695
16	2	28432
16	1	32776
16	6	33737
16	11	33769
16	10	35014
16	5	33933
16	12	33739
16	3	33898
16	4	32997
16	7	34521
16	8	34670
18	4	93600
18	8	97277
18	9	91064
18	6	96562
18	2	78637
18	1	88327
18	10	94395
18	11	91079
18	5	96596
18	7	98427
18	12	92358
18	3	94632
19	2	25225
19	1	26644
19	7	36002
19	10	33442
19	11	28877
19	5	32617
19	12	29783
19	3	31888
19	4	31057
19	9	31469
19	8	35809
19	6	34331
20	1	17859
20	7	13842
20	11	12900
20	10	13379
20	5	13666
20	12	13334
20	3	16162
20	4	15674
20	9	12611
20	8	13849
20	6	13480
20	2	14779
21	8	22961
21	6	22335
21	2	19156
21	1	21029
21	7	22897
21	10	20296
21	11	20094
21	5	22065
21	12	19221
21	3	22625
21	4	21786
21	9	19751
23	2	21782
23	1	23450
23	7	28560
23	11	26597
23	10	27619
23	5	25639
23	12	26640
23	3	25787
23	4	24394
23	9	26324
23	8	28740
23	6	27173