Airline	Month	Value
1	2	39102
1	1	44693
1	11	41280
1	10	44207
1	7	46289
1	5	43586
1	12	42616
1	3	45879
1	4	43967
1	9	43218
1	8	45341
1	6	44768
2	9	11795
2	2	10234
2	1	11269
2	6	12824
2	10	11887
2	11	11179
2	5	12107
2	12	11428
2	3	11858
2	7	13294
2	4	11696
2	8	13252
3	8	18151
3	7	19445
3	2	15173
3	1	16211
3	9	16909
3	11	17584
3	10	17368
3	5	17853
3	12	18877
3	3	18398
3	6	18147
3	4	18032
4	7	21500
4	2	17482
4	1	19287
4	11	20047
4	10	20431
4	9	18988
4	5	20404
4	12	21017
4	3	21305
4	6	21033
4	4	20119
4	8	20892
5	7	66305
5	4	59911
5	8	64898
5	9	59019
5	2	52085
5	6	63414
5	1	55744
5	10	61043
5	11	57991
5	5	62662
5	12	57304
5	3	62170
6	9	7471
6	2	5712
6	6	7617
6	1	6199
6	11	6959
6	10	7342
6	5	7226
6	12	7104
6	3	6722
6	7	7968
6	4	6343
6	8	8238
7	6	21834
7	2	17482
7	1	18505
7	11	20103
7	10	20012
7	5	21309
7	12	20378
7	3	21572
7	7	22568
7	4	21086
7	8	22027
7	9	19131
8	5	5665
8	12	5521
8	3	5594
8	7	5974
8	4	5557
8	8	5829
8	9	5365
8	6	5729
8	2	5046
8	1	5547
8	11	5318
8	10	5477
10	1	35243
10	10	37232
10	11	35221
10	6	36731
10	5	36661
10	12	36054
10	3	36987
10	4	35769
10	8	37676
10	7	37958
10	2	29627
10	9	36101
14	6	49953
14	2	43123
14	1	48323
14	11	44723
14	10	47818
14	5	47584
14	7	51702
14	12	47278
14	3	49101
14	4	46328
14	8	52710
14	9	46769
15	2	23148
15	1	25633
15	11	22842
15	10	24989
15	7	28354
15	5	25695
15	12	23852
15	3	27286
15	4	24965
15	9	24503
15	8	28024
15	6	27282
16	9	31989
16	2	31084
16	1	32992
16	6	33946
16	11	33133
16	10	33960
16	5	34825
16	12	33530
16	3	35752
16	4	33598
16	7	34671
16	8	33357
18	4	96503
18	8	99071
18	9	92371
18	6	100014
18	2	82384
18	1	91948
18	10	96532
18	11	90884
18	5	99122
18	7	101817
18	12	93785
18	3	99229
19	2	26607
19	1	26612
19	7	37444
19	10	33042
19	11	31515
19	5	34792
19	12	34104
19	3	36411
19	4	34500
19	9	32310
19	8	36714
19	6	35429
20	2	11743
20	1	12910
20	7	13839
20	11	11186
20	10	12463
20	5	13176
20	12	12572
20	3	13443
20	4	12715
20	9	12223
20	8	13550
20	6	13141
23	2	23692
23	1	24631
23	7	29300
23	11	25019
23	10	26897
23	5	27617
23	12	24981
23	3	28586
23	4	26178
23	9	25540
23	8	28419
23	6	27988