Airline	Month	Value
1	2	39102
1	1	43852
1	11	42292
1	10	44746
1	7	46891
1	5	44637
1	12	45040
1	3	45404
1	4	43439
1	9	43015
1	8	45710
1	6	45358
2	9	13258
2	2	11214
2	1	12263
2	6	14145
2	10	13363
2	11	13026
2	5	13211
2	12	13546
2	3	12864
2	7	14962
2	4	12641
2	8	15075
3	8	22209
3	7	21922
3	2	17465
3	1	18075
3	9	19022
3	11	19906
3	10	20041
3	5	20687
3	12	21856
3	3	21055
3	6	20813
3	4	20684
5	7	72601
5	4	65615
5	8	72603
5	9	66929
5	2	51586
5	6	69608
5	1	56072
5	10	70663
5	11	66963
5	5	67971
5	12	66478
5	3	66944
6	9	7831
6	2	5174
6	6	7554
6	1	5653
6	11	7694
6	10	8184
6	5	7248
6	12	7756
6	3	6028
6	7	8026
6	4	5967
6	8	8020
7	6	6890
7	2	7661
7	1	8829
7	11	3939
7	10	4648
7	5	7694
7	12	2929
7	3	9179
7	7	6964
7	4	8175
7	8	6293
7	9	4813
8	5	6196
8	12	6409
8	3	6068
8	7	6804
8	4	5893
8	8	6781
8	9	6173
8	6	6394
8	2	5414
8	1	6019
8	11	6122
8	10	6312
10	2	28282
10	9	29793
10	1	30268
10	10	30565
10	11	28192
10	6	31466
10	5	33539
10	12	29111
10	3	33295
10	4	33000
10	8	32055
10	7	32835
14	6	51235
14	2	43498
14	1	47924
14	11	46522
14	10	50202
14	5	51037
14	7	54242
14	12	47050
14	3	51707
14	4	50007
14	8	54176
14	9	48043
15	2	35051
15	1	37367
15	11	39560
15	10	43073
15	7	43482
15	5	41923
15	12	40128
15	3	42045
15	4	39335
15	9	39791
15	8	42442
15	6	42330
16	9	32869
16	2	29631
16	1	33761
16	6	34489
16	11	32979
16	10	35429
16	5	35008
16	12	34034
16	3	35778
16	4	34337
16	7	35428
16	8	34630
17	4	4853
17	9	4547
17	8	4886
17	6	4950
17	2	4106
17	1	4752
17	7	5080
17	10	4720
17	11	4718
17	5	4966
17	12	4934
17	3	4672
18	4	98567
18	8	98963
18	9	93599
18	6	101214
18	2	81911
18	1	87161
18	10	98561
18	11	95014
18	5	99914
18	7	104429
18	12	100072
18	3	100256
23	2	47256
23	1	49626
23	7	59287
23	11	51039
23	10	55531
23	5	56209
23	12	51370
23	3	58898
23	4	55679
23	9	53318
23	8	57983
23	6	56528